vhdl work "E:\ohr\lrfsc\trunk\hdl\sources\SineCosine.vhd"
vhdl work "E:\ohr\lrfsc\trunk\hdl\sources\RegistersMap.vhd"
vhdl work "E:\ohr\lrfsc\trunk\hdl\sources\VmeIntfce.vhd"
vhdl work "E:\ohr\lrfsc\trunk\hdl\sources\VMEDecoder.vhd"
vhdl work "E:\ohr\lrfsc\trunk\hdl\sources\TimingManager.vhd"
vhdl work "E:\ohr\lrfsc\trunk\hdl\sources\Snapshots.vhd"
vhdl work "E:\ohr\lrfsc\trunk\hdl\sources\SetPoints.vhd"
vhdl work "E:\ohr\lrfsc\trunk\hdl\sources\SatControlCW.vhd"
vhdl work "E:\ohr\lrfsc\trunk\hdl\sources\ResControl.vhd"
vhdl work "E:\ohr\lrfsc\trunk\hdl\sources\RAMManager.vhd"
vhdl work "E:\ohr\lrfsc\trunk\hdl\sources\PIControllerCW.vhd"
vhdl work "E:\ohr\lrfsc\trunk\hdl\sources\OneShot.vhd"
vhdl work "E:\ohr\lrfsc\trunk\hdl\sources\mul2x2.vhd"
vhdl work "E:\ohr\lrfsc\trunk\hdl\sources\IrqControl.vhd"
vhdl work "E:\ohr\lrfsc\trunk\hdl\sources\IQModulator.vhd"
vhdl work "E:\ohr\lrfsc\trunk\hdl\sources\iqdemodcw.vhd"
vhdl work "E:\ohr\lrfsc\trunk\hdl\sources\IQCounter.vhd"
vhdl work "E:\ohr\lrfsc\trunk\hdl\sources\FeedForward.vhd"
vhdl work "E:\ohr\lrfsc\trunk\hdl\sources\Diagnostics.vhd"
vhdl work "E:\ohr\lrfsc\trunk\hdl\sources\Commands.vhd"
vhdl work "E:\ohr\lrfsc\trunk\hdl\sources\ClockManager.vhd"
vhdl work "E:\ohr\lrfsc\trunk\hdl\sources\CavityControlCWV3.vhd"
